{
    "/js/app.js": "/js/app.js?id=09fa4b835d067372e969",
    "/css/app.css": "/css/app.css?id=6119a4907edc5e82116d",
    "/js/chunks/error_view.js": "/js/chunks/error_view.js?id=64e8e635ffbc8a2e50a2",
    "/js/chunks/home.js": "/js/chunks/home.js?id=0c8ab64bc46a70d5e61b",
    "/js/chunks/login.js": "/js/chunks/login.js?id=e86c4ab6548322d3e256",
    "/js/chunks/permission.js": "/js/chunks/permission.js?id=ea47d56a4de805c00fe0",
    "/js/chunks/permission~role~user.js": "/js/chunks/permission~role~user.js?id=1f1aec2ecd9ccdb2f632",
    "/js/chunks/profile.js": "/js/chunks/profile.js?id=70256a9b180e4c5b960a",
    "/js/chunks/register.js": "/js/chunks/register.js?id=67f2722836da7ede90b2",
    "/js/chunks/role.js": "/js/chunks/role.js?id=fa0d16276a2275224edd",
    "/js/chunks/user.js": "/js/chunks/user.js?id=6222893ac0ccd9955cc0",
    "/js/chunks/vendors~home.js": "/js/chunks/vendors~home.js?id=6f10ceeb208be6b5101a",
    "/js/mix-scripts.js": "/js/mix-scripts.js?id=8926f26871868668ffa6",
    "/js/chunks/audit_log.js": "/js/chunks/audit_log.js?id=a7154f28c1a96ba3c8c9",
    "/js/chunks/audit_log~permission~role~user.js": "/js/chunks/audit_log~permission~role~user.js?id=85d29559f8e52b1baf82",
    "/js/chunks/audit_log~user.js": "/js/chunks/audit_log~user.js?id=b8664aea63bc358ccd6b",
    "/js/chunks/audit_log~ip~permission~role~user.js": "/js/chunks/audit_log~ip~permission~role~user.js?id=51a968156cf62c808819",
    "/js/chunks/ip.js": "/js/chunks/ip.js?id=ed5000c9bcc00655335e",
    "/js/chunks/ip~permission.js": "/js/chunks/ip~permission.js?id=1d7a3746caf727813cdb"
}
